// Jest Snapshot v1, https://goo.gl/fbAQLP

exports[`snapshot with items 1`] = `
<div>
  <h2
    data-testid="item-list-title"
  />
  <div
    data-testid="item-list-item"
  >
    <h3>
      Moonlander
    </h3>
    <p>
      320
    </p>
    <button>
      Ajouter dans le panier
    </button>
  </div>
  <div
    data-testid="item-list-item"
  >
    <h3>
      Planck
    </h3>
    <p>
      250
    </p>
    <button>
      Ajouter dans le panier
    </button>
  </div>
</div>
`;

exports[`snapshot without items 1`] = `
<p
  data-testid="item-list-no-items"
>
  Aucun article
</p>
`;
