// Jest Snapshot v1, https://goo.gl/fbAQLP

exports[`match snapshot 1`] = `
<div>
  <h1>
    kevinDu67
  </h1>
  <h3
    data-testid="player-class"
  >
    Guerrier
  </h3>
  <hr />
  <ul>
    <li
      data-testid="bag-weapon-1e8d"
    >
      <button
        className="button"
        disabled={true}
      >
        équippé
      </button>
      (
      ) 
       
      <em>
        Maniable et équilibrée.
      </em>
    </li>
  </ul>
</div>
`;
